-- Merging decision tree log ---
manifest
ADDED from C:\Users\marcos\AndroidStudioProjects\ExReferencia\app\src\main\AndroidManifest.xml:2:1-41:12
	xmlns:android
		ADDED from C:\Users\marcos\AndroidStudioProjects\ExReferencia\app\src\main\AndroidManifest.xml:2:11-69
	package
		ADDED from C:\Users\marcos\AndroidStudioProjects\ExReferencia\app\src\main\AndroidManifest.xml:3:5-37
		INJECTED from C:\Users\marcos\AndroidStudioProjects\ExReferencia\app\src\main\AndroidManifest.xml
		INJECTED from C:\Users\marcos\AndroidStudioProjects\ExReferencia\app\src\main\AndroidManifest.xml
	android:versionName
		ADDED from C:\Users\marcos\AndroidStudioProjects\ExReferencia\app\src\main\AndroidManifest.xml:5:5-30
	android:versionCode
		ADDED from C:\Users\marcos\AndroidStudioProjects\ExReferencia\app\src\main\AndroidManifest.xml:4:5-28
		INJECTED from C:\Users\marcos\AndroidStudioProjects\ExReferencia\app\src\main\AndroidManifest.xml
		INJECTED from C:\Users\marcos\AndroidStudioProjects\ExReferencia\app\src\main\AndroidManifest.xml
uses-feature#android.hardware.camera
ADDED from C:\Users\marcos\AndroidStudioProjects\ExReferencia\app\src\main\AndroidManifest.xml:7:5-60
	android:name
		ADDED from C:\Users\marcos\AndroidStudioProjects\ExReferencia\app\src\main\AndroidManifest.xml:7:19-57
uses-permission#android.permission.CAMERA
ADDED from C:\Users\marcos\AndroidStudioProjects\ExReferencia\app\src\main\AndroidManifest.xml:8:1-61
	android:name
		ADDED from C:\Users\marcos\AndroidStudioProjects\ExReferencia\app\src\main\AndroidManifest.xml:8:18-58
application
ADDED from C:\Users\marcos\AndroidStudioProjects\ExReferencia\app\src\main\AndroidManifest.xml:9:5-39:23
MERGED from [com.android.support:support-v4:22.2.1] C:\Users\marcos\AndroidStudioProjects\ExReferencia\app\build\intermediates\exploded-aar\com.android.support\support-v4\22.2.1\AndroidManifest.xml:22:5-20
MERGED from [com.android.support:appcompat-v7:22.2.1] C:\Users\marcos\AndroidStudioProjects\ExReferencia\app\build\intermediates\exploded-aar\com.android.support\appcompat-v7\22.2.1\AndroidManifest.xml:22:5-20
MERGED from [com.android.support:support-v4:22.2.1] C:\Users\marcos\AndroidStudioProjects\ExReferencia\app\build\intermediates\exploded-aar\com.android.support\support-v4\22.2.1\AndroidManifest.xml:22:5-20
	android:label
		ADDED from C:\Users\marcos\AndroidStudioProjects\ExReferencia\app\src\main\AndroidManifest.xml:12:9-41
	android:allowBackup
		ADDED from C:\Users\marcos\AndroidStudioProjects\ExReferencia\app\src\main\AndroidManifest.xml:10:9-35
	android:icon
		ADDED from C:\Users\marcos\AndroidStudioProjects\ExReferencia\app\src\main\AndroidManifest.xml:11:9-45
	android:theme
		ADDED from C:\Users\marcos\AndroidStudioProjects\ExReferencia\app\src\main\AndroidManifest.xml:13:9-46
activity#com.expea.exreferencia.MainActivity
ADDED from C:\Users\marcos\AndroidStudioProjects\ExReferencia\app\src\main\AndroidManifest.xml:14:9-22:20
	android:label
		ADDED from C:\Users\marcos\AndroidStudioProjects\ExReferencia\app\src\main\AndroidManifest.xml:16:13-45
	android:name
		ADDED from C:\Users\marcos\AndroidStudioProjects\ExReferencia\app\src\main\AndroidManifest.xml:15:13-63
intent-filter#android.intent.action.MAIN+android.intent.category.LAUNCHER
ADDED from C:\Users\marcos\AndroidStudioProjects\ExReferencia\app\src\main\AndroidManifest.xml:17:13-21:29
action#android.intent.action.MAIN
ADDED from C:\Users\marcos\AndroidStudioProjects\ExReferencia\app\src\main\AndroidManifest.xml:18:17-69
	android:name
		ADDED from C:\Users\marcos\AndroidStudioProjects\ExReferencia\app\src\main\AndroidManifest.xml:18:25-66
category#android.intent.category.LAUNCHER
ADDED from C:\Users\marcos\AndroidStudioProjects\ExReferencia\app\src\main\AndroidManifest.xml:20:17-77
	android:name
		ADDED from C:\Users\marcos\AndroidStudioProjects\ExReferencia\app\src\main\AndroidManifest.xml:20:27-74
activity#com.expea.exreferencia.PrincipalActivity
ADDED from C:\Users\marcos\AndroidStudioProjects\ExReferencia\app\src\main\AndroidManifest.xml:23:9-26:20
	android:label
		ADDED from C:\Users\marcos\AndroidStudioProjects\ExReferencia\app\src\main\AndroidManifest.xml:25:13-61
	android:name
		ADDED from C:\Users\marcos\AndroidStudioProjects\ExReferencia\app\src\main\AndroidManifest.xml:24:13-68
activity#com.expea.exreferencia.ConsultaActivity
ADDED from C:\Users\marcos\AndroidStudioProjects\ExReferencia\app\src\main\AndroidManifest.xml:27:9-29:20
	android:label
		ADDED from C:\Users\marcos\AndroidStudioProjects\ExReferencia\app\src\main\AndroidManifest.xml:28:13-37
	android:name
		ADDED from C:\Users\marcos\AndroidStudioProjects\ExReferencia\app\src\main\AndroidManifest.xml:27:19-73
activity#com.expea.exreferencia.BajarDActivity
ADDED from C:\Users\marcos\AndroidStudioProjects\ExReferencia\app\src\main\AndroidManifest.xml:30:9-32:20
	android:label
		ADDED from C:\Users\marcos\AndroidStudioProjects\ExReferencia\app\src\main\AndroidManifest.xml:31:13-40
	android:name
		ADDED from C:\Users\marcos\AndroidStudioProjects\ExReferencia\app\src\main\AndroidManifest.xml:30:19-71
activity#com.expea.exreferencia.ConfiguracionActivity
ADDED from C:\Users\marcos\AndroidStudioProjects\ExReferencia\app\src\main\AndroidManifest.xml:33:9-35:20
	android:label
		ADDED from C:\Users\marcos\AndroidStudioProjects\ExReferencia\app\src\main\AndroidManifest.xml:34:13-42
	android:name
		ADDED from C:\Users\marcos\AndroidStudioProjects\ExReferencia\app\src\main\AndroidManifest.xml:33:19-78
activity#com.expea.exreferencia.RegistroActivity
ADDED from C:\Users\marcos\AndroidStudioProjects\ExReferencia\app\src\main\AndroidManifest.xml:36:9-38:20
	android:label
		ADDED from C:\Users\marcos\AndroidStudioProjects\ExReferencia\app\src\main\AndroidManifest.xml:37:13-37
	android:name
		ADDED from C:\Users\marcos\AndroidStudioProjects\ExReferencia\app\src\main\AndroidManifest.xml:36:19-73
uses-sdk
INJECTED from C:\Users\marcos\AndroidStudioProjects\ExReferencia\app\src\main\AndroidManifest.xml reason: use-sdk injection requested
MERGED from [com.android.support:support-v4:22.2.1] C:\Users\marcos\AndroidStudioProjects\ExReferencia\app\build\intermediates\exploded-aar\com.android.support\support-v4\22.2.1\AndroidManifest.xml:20:5-43
MERGED from [com.android.support:appcompat-v7:22.2.1] C:\Users\marcos\AndroidStudioProjects\ExReferencia\app\build\intermediates\exploded-aar\com.android.support\appcompat-v7\22.2.1\AndroidManifest.xml:20:5-43
MERGED from [com.android.support:support-v4:22.2.1] C:\Users\marcos\AndroidStudioProjects\ExReferencia\app\build\intermediates\exploded-aar\com.android.support\support-v4\22.2.1\AndroidManifest.xml:20:5-43
	android:targetSdkVersion
		INJECTED from C:\Users\marcos\AndroidStudioProjects\ExReferencia\app\src\main\AndroidManifest.xml
		INJECTED from C:\Users\marcos\AndroidStudioProjects\ExReferencia\app\src\main\AndroidManifest.xml
	android:minSdkVersion
		INJECTED from C:\Users\marcos\AndroidStudioProjects\ExReferencia\app\src\main\AndroidManifest.xml
		INJECTED from C:\Users\marcos\AndroidStudioProjects\ExReferencia\app\src\main\AndroidManifest.xml
